\relax 
\@writefile{toc}{\contentsline {section}{\tocsection {}{1}{Problem}}{1}}
\@writefile{toc}{\contentsline {section}{\tocsection {}{2}{Solution}}{1}}
\@writefile{toc}{\contentsline {section}{\tocsection {}{3}{Background}}{1}}
\@writefile{toc}{\contentsline {section}{\tocsection {}{4}{Linear Diophantine equation in two variables}}{1}}
\@writefile{toc}{\contentsline {section}{\tocsection {}{5}{Pell's equation}}{2}}
\@writefile{toc}{\contentsline {section}{\tocsection {}{6}{Example}}{3}}
\newlabel{tocindent-1}{0pt}
\newlabel{tocindent0}{0pt}
\newlabel{tocindent1}{19.4667pt}
\newlabel{tocindent2}{0pt}
\newlabel{tocindent3}{0pt}
\@writefile{toc}{\contentsline {section}{\tocsection {}{7}{Getting back to the original problem}}{4}}
