\relax 
\newlabel{tocindent-1}{0pt}
\newlabel{tocindent0}{0pt}
\newlabel{tocindent1}{17.77782pt}
\newlabel{tocindent2}{0pt}
\newlabel{tocindent3}{0pt}
\@writefile{toc}{\contentsline {section}{\tocsection {}{1}{Euclid original constructive proof}}{1}}
\@writefile{toc}{\contentsline {section}{\tocsection {}{2}{Modified Euclid proof: By contradiction}}{1}}
\@writefile{toc}{\contentsline {section}{\tocsection {}{3}{Divergence of harmonic series}}{1}}
\@writefile{toc}{\contentsline {section}{\tocsection {}{4}{Furstenberg's proof}}{1}}
\@writefile{toc}{\contentsline {section}{\tocsection {}{5}{Based on the irrationality of $\pi $}}{1}}
