\relax 
\@writefile{toc}{\contentsline {section}{\tocsection {}{1}{Introduction}}{1}}
\@writefile{toc}{\contentsline {section}{\tocsection {}{2}{Mobius function}}{2}}
\@writefile{toc}{\contentsline {section}{\tocsection {}{3}{Euler Toitent function}}{4}}
\@writefile{toc}{\contentsline {section}{\tocsection {}{4}{Congruences}}{5}}
\@writefile{toc}{\contentsline {section}{\tocsection {}{5}{Quadratic residues}}{6}}
\newlabel{tocindent-1}{0pt}
\newlabel{tocindent0}{0pt}
\newlabel{tocindent1}{17.77782pt}
\newlabel{tocindent2}{0pt}
\newlabel{tocindent3}{0pt}
