\contentsline {section}{\tocsection {}{1}{De Moivre's formula}}{1}{section.1}
\contentsline {subsection}{\tocsubsection {}{1.1}{Abel partial summation technique}}{1}{subsection.1.1}
\contentsline {section}{\tocsection {}{2}{Stirling's formula}}{2}{section.2}
