\relax 
\newlabel{tocindent-1}{0pt}
\newlabel{tocindent0}{0pt}
\newlabel{tocindent1}{0pt}
\newlabel{tocindent2}{0pt}
\newlabel{tocindent3}{0pt}
\@writefile{lof}{\contentsline {figure}{\numberline {1}{\ignorespaces Initial}}{1}}
\@writefile{lof}{\contentsline {figure}{\numberline {2}{\ignorespaces First step}}{2}}
\@writefile{lof}{\contentsline {figure}{\numberline {3}{\ignorespaces Second step}}{3}}
\@writefile{lof}{\contentsline {figure}{\numberline {4}{\ignorespaces Third step}}{4}}
\@writefile{lof}{\contentsline {figure}{\numberline {5}{\ignorespaces Fourth step}}{5}}
\@writefile{lof}{\contentsline {figure}{\numberline {6}{\ignorespaces Fifth step}}{6}}
\@writefile{lof}{\contentsline {figure}{\numberline {7}{\ignorespaces Final step}}{7}}
